<?xml version="1.0" encoding="UTF-8" standalone="no"?>
<!-- Created with Inkscape (http://www.inkscape.org/) -->

<svg
   xmlns:dc="http://purl.org/dc/elements/1.1/"
   xmlns:cc="http://creativecommons.org/ns#"
   xmlns:rdf="http://www.w3.org/1999/02/22-rdf-syntax-ns#"
   xmlns:svg="http://www.w3.org/2000/svg"
   xmlns="http://www.w3.org/2000/svg"
   xmlns:sodipodi="http://sodipodi.sourceforge.net/DTD/sodipodi-0.dtd"
   xmlns:inkscape="http://www.inkscape.org/namespaces/inkscape"
   width="192"
   height="74.099998"
   viewBox="0 0 191.99998 74.099998"
   id="svg5461"
   version="1.1"
   inkscape:version="0.91 r13725"
   sodipodi:docname="logo.svg"
   inkscape:export-filename="/var/www/devp-oficial/img/logo.png"
   inkscape:export-xdpi="93.75"
   inkscape:export-ydpi="93.75">
  <defs
     id="defs5463">
    <clipPath
       id="clipPath3796"
       clipPathUnits="userSpaceOnUse">
      <path
         inkscape:connector-curvature="0"
         id="path3798"
         d="m 0,595.28 841.89,0 L 841.89,0 0,0 0,595.28 Z" />
    </clipPath>
  </defs>
  <sodipodi:namedview
     id="base"
     pagecolor="#ffffff"
     bordercolor="#666666"
     borderopacity="1.0"
     inkscape:pageopacity="0.0"
     inkscape:pageshadow="2"
     inkscape:zoom="2.8"
     inkscape:cx="79.974884"
     inkscape:cy="42.211486"
     inkscape:document-units="px"
     inkscape:current-layer="g3389"
     showgrid="false"
     units="px"
     inkscape:window-width="1366"
     inkscape:window-height="704"
     inkscape:window-x="0"
     inkscape:window-y="27"
     inkscape:window-maximized="1" />
  <metadata
     id="metadata5466">
    <rdf:RDF>
      <cc:Work
         rdf:about="">
        <dc:format>image/svg+xml</dc:format>
        <dc:type
           rdf:resource="http://purl.org/dc/dcmitype/StillImage" />
        <dc:title />
      </cc:Work>
    </rdf:RDF>
  </metadata>
  <g
     inkscape:label="Capa 1"
     inkscape:groupmode="layer"
     id="layer1"
     transform="translate(0,-978.26222)">
    <g
       id="g6089"
       transform="translate(0,25.347061)">
      <g
         id="g6139"
         transform="matrix(0.61924512,0,0,0.61924512,0.3807431,391.84411)">
        <g
           id="g3788"
           transform="matrix(0.8507269,0,0,-0.84959934,48.638023,960.05478)">
          <path
             d="m 0,0 -6.56,-10.525 12.48,-21.615 4.986,0.084 -1.284,-21.173 33.453,-0.033 12.566,20.819 16.73,-11.032 19.024,32.95 -25.685,44.49 -23.877,-21.04 -4.854,8.728 -37.154,0 L -9.817,4.85 0,0 Z"
             style="fill:none;stroke:#cdc2b5;stroke-width:2.81100011;stroke-linecap:round;stroke-linejoin:round;stroke-miterlimit:10;stroke-dasharray:none;stroke-opacity:1"
             id="path3790"
             inkscape:connector-curvature="0" />
        </g>
        <g
           id="g3800"
           transform="matrix(0.8507269,0,0,-0.84959934,52.686884,1005.1391)">
          <path
             d="m 0,0 c 0,-2.747 2.229,-4.979 4.979,-4.979 2.751,0 4.98,2.232 4.98,4.979 0,2.752 -2.229,4.98 -4.98,4.98 C 2.229,4.98 0,2.752 0,0"
             style="fill:#cdc2b5;fill-opacity:1;fill-rule:nonzero;stroke:none"
             id="path3802"
             inkscape:connector-curvature="0" />
        </g>
        <g
           id="g3804"
           transform="matrix(0.8507269,0,0,-0.84959934,60.457679,987.28921)">
          <path
             d="m 0,0 c 0,-1.648 -1.336,-2.985 -2.987,-2.985 -1.65,0 -2.988,1.337 -2.988,2.985 0,1.652 1.338,2.99 2.988,2.99 C -1.336,2.99 0,1.652 0,0"
             style="fill:#cdc2b5;fill-opacity:1;fill-rule:nonzero;stroke:none"
             id="path3806"
             inkscape:connector-curvature="0" />
        </g>
        <g
           id="g3808"
           transform="matrix(0.8507269,0,0,-0.84959934,43.926268,960.02489)">
          <path
             d="M 0,0 C 0,-2.75 2.229,-4.979 4.98,-4.979 7.729,-4.979 9.958,-2.75 9.958,0 9.958,2.75 7.729,4.979 4.98,4.979 2.229,4.979 0,2.75 0,0"
             style="fill:#cdc2b5;fill-opacity:1;fill-rule:nonzero;stroke:none"
             id="path3810"
             inkscape:connector-curvature="0" />
        </g>
        <g
           id="g3812"
           transform="matrix(0.8507269,0,0,-0.84959934,100.30224,930.64481)">
          <path
             d="m 0,0 c 0,-2.75 2.229,-4.979 4.98,-4.979 2.749,0 4.979,2.229 4.979,4.979 0,2.752 -2.23,4.98 -4.979,4.98 C 2.229,4.98 0,2.752 0,0"
             style="fill:#cdc2b5;fill-opacity:1;fill-rule:nonzero;stroke:none"
             id="path3814"
             inkscape:connector-curvature="0" />
        </g>
        <g
           id="g3816"
           transform="matrix(0.8507269,0,0,-0.84959934,66.342157,950.60547)">
          <path
             d="m 0,0 9.96,-0.029 12.634,-21.396 36.195,-0.222 -26.824,-46.945 6.741,-8.268 -4.619,-8.002 -72.993,0 11.982,20.478 -19.095,32.812 -19.02,-8.023 -10.363,17.948 30.849,53.434 13.592,-17.512 3.874,6.708 L 3.938,21.14 0,0 Z"
             style="fill:none;stroke:#162e41;stroke-width:2.81100011;stroke-linecap:butt;stroke-linejoin:round;stroke-miterlimit:10;stroke-dasharray:none;stroke-opacity:1"
             id="path3818"
             inkscape:connector-curvature="0" />
        </g>
        <g
           id="g3820"
           transform="matrix(0.8507269,0,0,-0.84959934,96.000453,1008.8428)">
          <path
             d="m 0,0 c 0,-1.65 -1.338,-2.987 -2.988,-2.987 -1.651,0 -2.988,1.337 -2.988,2.987 0,1.649 1.337,2.988 2.988,2.988 C -1.338,2.988 0,1.649 0,0"
             style="fill:#162e41;fill-opacity:1;fill-rule:nonzero;stroke:none"
             id="path3822"
             inkscape:connector-curvature="0" />
        </g>
        <g
           id="g3824"
           transform="matrix(0.8507269,0,0,-0.84959934,69.079626,950.40878)">
          <path
             d="m 0,0 c 0,-1.651 -1.338,-2.989 -2.988,-2.989 -1.65,0 -2.987,1.338 -2.987,2.989 0,1.651 1.337,2.986 2.987,2.986 C -1.338,2.986 0,1.651 0,0"
             style="fill:#162e41;fill-opacity:1;fill-rule:nonzero;stroke:none"
             id="path3826"
             inkscape:connector-curvature="0" />
        </g>
        <g
           id="g3828"
           transform="matrix(0.8507269,0,0,-0.84959934,6.9852393,984.2451)">
          <path
             d="m 0,0 c 0,-2.751 2.23,-4.979 4.979,-4.979 2.75,0 4.979,2.228 4.979,4.979 0,2.75 -2.229,4.979 -4.979,4.979 C 2.23,4.979 0,2.75 0,0"
             style="fill:#162e41;fill-opacity:1;fill-rule:nonzero;stroke:none"
             id="path3830"
             inkscape:connector-curvature="0" />
        </g>
        <g
           id="g3832"
           transform="matrix(0.8507269,0,0,-0.84959934,111.54783,969.26921)">
          <path
             d="m 0,0 c 0,-2.751 2.23,-4.98 4.979,-4.98 2.75,0 4.979,2.229 4.979,4.98 0,2.75 -2.229,4.979 -4.979,4.979 C 2.23,4.979 0,2.75 0,0"
             style="fill:#162e41;fill-opacity:1;fill-rule:nonzero;stroke:none"
             id="path3834"
             inkscape:connector-curvature="0" />
        </g>
        <g
           id="g3836"
           transform="matrix(0.8507269,0,0,-0.84959934,24.258568,923.21668)">
          <path
             d="M 0,0 C 0,-2.751 2.23,-4.98 4.98,-4.98 7.73,-4.98 9.958,-2.751 9.958,0 9.958,2.75 7.73,4.979 4.98,4.979 2.23,4.979 0,2.75 0,0"
             style="fill:#162e41;fill-opacity:1;fill-rule:nonzero;stroke:none"
             id="path3838"
             inkscape:connector-curvature="0" />
        </g>
        <g
           id="g3840"
           transform="matrix(0.8507269,0,0,-0.84959934,27.448369,995.25089)">
          <path
             d="m 0,0 12.541,-22.394 42.504,0.179 -2.908,21.23 9.688,0 18.714,31.886 -7.537,12.079 20.993,8.083 -20.057,33.03 -4.977,0 4.638,10.024 -44.797,0 L 33.307,84.093 12.538,84.2 -10.28,44.562 11.033,39.035 6.153,30.901 17.693,12.679 0,0 Z"
             style="fill:none;stroke:#d76b23;stroke-width:2.81100011;stroke-linecap:round;stroke-linejoin:round;stroke-miterlimit:10;stroke-dasharray:none;stroke-opacity:1"
             id="path3842"
             inkscape:connector-curvature="0" />
        </g>
        <g
           id="g3844"
           transform="matrix(0.8507269,0,0,-0.84959934,58.370335,924.23968)">
          <path
             d="m 0,0 c 0,-1.649 -1.339,-2.986 -2.989,-2.986 -1.65,0 -2.986,1.337 -2.986,2.986 0,1.652 1.336,2.988 2.986,2.988 C -1.339,2.988 0,1.652 0,0"
             style="fill:#d76b23;fill-opacity:1;fill-rule:nonzero;stroke:none"
             id="path3846"
             inkscape:connector-curvature="0" />
        </g>
        <g
           id="g3848"
           transform="matrix(0.8507269,0,0,-0.84959934,85.215107,915.28813)">
          <path
             d="m 0,0 c 0,-2.751 2.229,-4.98 4.98,-4.98 2.749,0 4.979,2.229 4.979,4.98 0,2.749 -2.23,4.978 -4.979,4.978 C 2.229,4.978 0,2.749 0,0"
             style="fill:#d76b23;fill-opacity:1;fill-rule:nonzero;stroke:none"
             id="path3850"
             inkscape:connector-curvature="0" />
        </g>
        <g
           id="g3852"
           transform="matrix(0.8507269,0,0,-0.84959934,103.17676,951.47911)">
          <path
             d="m 0,0 c 0,-2.75 2.229,-4.979 4.979,-4.979 2.75,0 4.978,2.229 4.978,4.979 0,2.752 -2.228,4.979 -4.978,4.979 C 2.229,4.979 0,2.752 0,0"
             style="fill:#d76b23;fill-opacity:1;fill-rule:nonzero;stroke:none"
             id="path3854"
             inkscape:connector-curvature="0" />
        </g>
        <g
           id="g3856"
           transform="matrix(0.8507269,0,0,-0.84959934,69.551098,996.33362)">
          <path
             d="m 0,0 c 0,-1.65 1.337,-2.988 2.988,-2.988 1.65,0 2.987,1.338 2.987,2.988 0,1.649 -1.337,2.987 -2.987,2.987 C 1.337,2.987 0,1.649 0,0"
             style="fill:#d76b23;fill-opacity:1;fill-rule:nonzero;stroke:none"
             id="path3858"
             inkscape:connector-curvature="0" />
        </g>
        <g
           id="g3860"
           transform="matrix(0.8507269,0,0,-0.84959934,22.957126,994.62202)">
          <path
             d="m 0,0 c 0,-2.749 2.23,-4.979 4.979,-4.979 2.75,0 4.98,2.23 4.98,4.979 0,2.75 -2.23,4.979 -4.98,4.979 C 2.23,4.979 0,2.75 0,0"
             style="fill:#d76b23;fill-opacity:1;fill-rule:nonzero;stroke:none"
             id="path3862"
             inkscape:connector-curvature="0" />
        </g>
        <g
           id="g3864"
           transform="matrix(0.8507269,0,0,-0.84959934,58.850911,979.89753)">
          <path
             d="M 0,0 -7.557,13.09 0,26.176 l 15.11,0 L 22.667,13.09 15.11,0 0,0 Z"
             style="fill:#162e41;fill-opacity:1;fill-rule:nonzero;stroke:none"
             id="path3866"
             inkscape:connector-curvature="0" />
        </g>
      </g>
      <g
         id="g6132"
         transform="matrix(0.56963898,0,0,0.56963898,5.0681507,437.55694)">
        <g
           id="g3389"
           transform="translate(-1.3299905,10.196593)">
          <text
             transform="scale(1.0006634,0.99933704)"
             y="1002.0887"
             x="137.37292"
             id="text3872"
             style="font-variant:normal;font-weight:normal;font-stretch:normal;font-size:18.52164841px;font-family:Puritan;-inkscape-font-specification:Puritan;writing-mode:lr-tb;fill:#162e41;fill-opacity:1;fill-rule:nonzero;stroke:none">
            <tspan
               style="font-style:normal;font-variant:normal;font-weight:normal;font-stretch:normal;font-family:'URW Gothic L';-inkscape-font-specification:'URW Gothic L'"
               y="1002.0887"
               x="137.37292"
               id="tspan3876"
               sodipodi:role="line">SOLUCIONES</tspan>
          </text>
          <text
             sodipodi:linespacing="880.00002%"
             id="text3381"
             y="1001.4235"
             x="262.05267"
             style="font-style:normal;font-weight:normal;font-size:34.70081329px;line-height:880.00001907%;font-family:sans-serif;letter-spacing:0px;word-spacing:0px;fill:#162e41;fill-opacity:1;stroke:none;stroke-width:1px;stroke-linecap:butt;stroke-linejoin:miter;stroke-opacity:1"
             xml:space="preserve"><tspan
               style="font-style:normal;font-variant:normal;font-weight:normal;font-stretch:normal;font-size:18.50710106px;font-family:'URW Gothic L';-inkscape-font-specification:'URW Gothic L';fill:#162e41;fill-opacity:1"
               y="1001.4235"
               x="262.05267"
               id="tspan3383"
               sodipodi:role="line">IT|TIC</tspan></text>
          <text
             sodipodi:linespacing="880.00002%"
             id="text3385"
             y="980.67987"
             x="136.22035"
             style="font-style:normal;font-weight:normal;font-size:75.5014801px;line-height:880.00001907%;font-family:sans-serif;letter-spacing:0px;word-spacing:0px;fill:#162e41;fill-opacity:1;stroke:none;stroke-width:1px;stroke-linecap:butt;stroke-linejoin:miter;stroke-opacity:1"
             xml:space="preserve"><tspan
               style="font-style:normal;font-variant:normal;font-weight:normal;font-stretch:normal;font-family:serif;-inkscape-font-specification:serif;letter-spacing:-3.25440121px;fill:#162e41;fill-opacity:1"
               y="980.67987"
               x="136.22035"
               id="tspan3387"
               sodipodi:role="line">DevP</tspan></text>
        </g>
      </g>
    </g>
  </g>
</svg>
